.....
----------------------------------------------------------------------
Ran 5 tests in 0.001s

OK
Name               Stmts   Miss Branch BrPart  Cover   Missing
--------------------------------------------------------------
Diplomacy.py          67      1     50      2    97%   48, 31->34, 47->48
TestDiplomacy.py      30      0      2      1    97%   69->exit
--------------------------------------------------------------
TOTAL                 97      1     52      3    97%
